0 1.4
0.001 1.39874
0.002 1.39748
0.003 1.39622
0.004 1.39495
0.005 1.39369
0.006 1.39243
0.007 1.39117
0.008 1.38991
0.009 1.38865
0.01 1.38739
0.011 1.38613
0.012 1.38486
0.013 1.3836
0.014 1.38234
0.015 1.38108
0.016 1.37982
0.017 1.37856
0.018 1.3773
0.019 1.37604
0.02 1.37478
0.021 1.37351
0.022 1.37225
0.023 1.37099
0.024 1.36973
0.025 1.36847
0.026 1.36721
0.027 1.36595
0.028 1.36469
0.029 1.36343
0.03 1.36217
0.031 1.36091
0.032 1.35965
0.033 1.35839
0.034 1.35713
0.035 1.35587
0.036 1.35461
0.037 1.35335
0.038 1.35209
0.039 1.35083
0.04 1.34957
0.041 1.34831
0.042 1.34705
0.043 1.3458
0.044 1.34454
0.045 1.34328
0.046 1.34202
0.047 1.34076
0.048 1.3395
0.049 1.33825
0.05 1.33699
0.051 1.33573
0.052 1.33447
0.053 1.33321
0.054 1.33196
0.055 1.3307
0.056 1.32944
0.057 1.32819
0.058 1.32693
0.059 1.32567
0.06 1.32442
0.061 1.32316
0.062 1.3219
0.063 1.32065
0.064 1.31939
0.065 1.31814
0.066 1.31688
0.067 1.31562
0.068 1.31437
0.069 1.31311
0.07 1.31186
0.071 1.3106
0.072 1.30935
0.073 1.3081
0.074 1.30684
0.075 1.30559
0.076 1.30434
0.077 1.30308
0.078 1.30183
0.079 1.30058
0.08 1.29932
0.081 1.29807
0.082 1.29682
0.083 1.29557
0.084 1.29431
0.085 1.29306
0.086 1.29181
0.087 1.29056
0.088 1.28931
0.089 1.28806
0.09 1.28681
0.091 1.28556
0.092 1.28431
0.093 1.28306
0.094 1.28181
0.095 1.28056
0.096 1.27931
0.097 1.27806
0.098 1.27682
0.099 1.27557
0.1 1.27432
0.101 1.27307
0.102 1.27183
0.103 1.27058
0.104 1.26933
0.105 1.26809
0.106 1.26684
0.107 1.26559
0.108 1.26435
0.109 1.2631
0.11 1.26186
0.111 1.26061
0.112 1.25937
0.113 1.25813
0.114 1.25688
0.115 1.25564
0.116 1.2544
0.117 1.25315
0.118 1.25191
0.119 1.25067
0.12 1.24943
0.121 1.24819
0.122 1.24695
0.123 1.24571
0.124 1.24446
0.125 1.24322
0.126 1.24199
0.127 1.24075
0.128 1.23951
0.129 1.23827
0.13 1.23703
0.131 1.23579
0.132 1.23456
0.133 1.23332
0.134 1.23208
0.135 1.23084
0.136 1.22961
0.137 1.22837
0.138 1.22714
0.139 1.2259
0.14 1.22467
0.141 1.22343
0.142 1.2222
0.143 1.22097
0.144 1.21973
0.145 1.2185
0.146 1.21727
0.147 1.21604
0.148 1.21481
0.149 1.21358
0.15 1.21235
0.151 1.21112
0.152 1.20989
0.153 1.20866
0.154 1.20743
0.155 1.2062
0.156 1.20497
0.157 1.20374
0.158 1.20252
0.159 1.20129
0.16 1.20006
0.161 1.19884
0.162 1.19761
0.163 1.19639
0.164 1.19516
0.165 1.19394
0.166 1.19272
0.167 1.19149
0.168 1.19027
0.169 1.18905
0.17 1.18783
0.171 1.18661
0.172 1.18539
0.173 1.18416
0.174 1.18295
0.175 1.18173
0.176 1.18051
0.177 1.17929
0.178 1.17807
0.179 1.17685
0.18 1.17564
0.181 1.17442
0.182 1.1732
0.183 1.17199
0.184 1.17077
0.185 1.16956
0.186 1.16835
0.187 1.16713
0.188 1.16592
0.189 1.16471
0.19 1.1635
0.191 1.16229
0.192 1.16107
0.193 1.15986
0.194 1.15866
0.195 1.15745
0.196 1.15624
0.197 1.15503
0.198 1.15382
0.199 1.15262
0.2 1.15141
0.201 1.1502
0.202 1.149
0.203 1.14779
0.204 1.14659
0.205 1.14539
0.206 1.14418
0.207 1.14298
0.208 1.14178
0.209 1.14058
0.21 1.13938
0.211 1.13818
0.212 1.13698
0.213 1.13578
0.214 1.13458
0.215 1.13338
0.216 1.13219
0.217 1.13099
0.218 1.12979
0.219 1.1286
0.22 1.1274
0.221 1.12621
0.222 1.12502
0.223 1.12382
0.224 1.12263
0.225 1.12144
0.226 1.12025
0.227 1.11906
0.228 1.11787
0.229 1.11668
0.23 1.11549
0.231 1.1143
0.232 1.11311
0.233 1.11193
0.234 1.11074
0.235 1.10956
0.236 1.10837
0.237 1.10719
0.238 1.106
0.239 1.10482
0.24 1.10364
0.241 1.10246
0.242 1.10128
0.243 1.1001
0.244 1.09892
0.245 1.09774
0.246 1.09656
0.247 1.09538
0.248 1.09421
0.249 1.09303
0.25 1.09186
0.251 1.09068
0.252 1.08951
0.253 1.08834
0.254 1.08716
0.255 1.08599
0.256 1.08482
0.257 1.08365
0.258 1.08248
0.259 1.08131
0.26 1.08014
0.261 1.07898
0.262 1.07781
0.263 1.07664
0.264 1.07548
0.265 1.07431
0.266 1.07315
0.267 1.07199
0.268 1.07082
0.269 1.06966
0.27 1.0685
0.271 1.06734
0.272 1.06618
0.273 1.06502
0.274 1.06387
0.275 1.06271
0.276 1.06155
0.277 1.0604
0.278 1.05924
0.279 1.05809
0.28 1.05693
0.281 1.05578
0.282 1.05463
0.283 1.05348
0.284 1.05233
0.285 1.05118
0.286 1.05003
0.287 1.04888
0.288 1.04774
0.289 1.04659
0.29 1.04544
0.291 1.0443
0.292 1.04316
0.293 1.04201
0.294 1.04087
0.295 1.03973
0.296 1.03859
0.297 1.03745
0.298 1.03631
0.299 1.03517
0.3 1.03403
0.301 1.0329
0.302 1.03176
0.303 1.03063
0.304 1.02949
0.305 1.02836
0.306 1.02723
0.307 1.0261
0.308 1.02497
0.309 1.02384
0.31 1.02271
0.311 1.02158
0.312 1.02045
0.313 1.01933
0.314 1.0182
0.315 1.01708
0.316 1.01595
0.317 1.01483
0.318 1.01371
0.319 1.01259
0.32 1.01147
0.321 1.01035
0.322 1.00923
0.323 1.00811
0.324 1.007
0.325 1.00588
0.326 1.00477
0.327 1.00365
0.328 1.00254
0.329 1.00143
0.33 1.00032
0.331 0.999206
0.332 0.998097
0.333 0.996988
0.334 0.995881
0.335 0.994774
0.336 0.993669
0.337 0.992564
0.338 0.99146
0.339 0.990357
0.34 0.989256
0.341 0.988155
0.342 0.987055
0.343 0.985956
0.344 0.984858
0.345 0.98376
0.346 0.982664
0.347 0.981569
0.348 0.980475
0.349 0.979382
0.35 0.978289
0.351 0.977198
0.352 0.976107
0.353 0.975018
0.354 0.97393
0.355 0.972842
0.356 0.971756
0.357 0.97067
0.358 0.969586
0.359 0.968502
0.36 0.96742
0.361 0.966338
0.362 0.965258
0.363 0.964178
0.364 0.9631
0.365 0.962022
0.366 0.960946
0.367 0.95987
0.368 0.958796
0.369 0.957722
0.37 0.95665
0.371 0.955578
0.372 0.954508
0.373 0.953439
0.374 0.95237
0.375 0.951303
0.376 0.950237
0.377 0.949172
0.378 0.948108
0.379 0.947044
0.38 0.945982
0.381 0.944921
0.382 0.943861
0.383 0.942803
0.384 0.941745
0.385 0.940688
0.386 0.939632
0.387 0.938578
0.388 0.937524
0.389 0.936472
0.39 0.93542
0.391 0.93437
0.392 0.933321
0.393 0.932272
0.394 0.931225
0.395 0.930179
0.396 0.929135
0.397 0.928091
0.398 0.927048
0.399 0.926006
0.4 0.924966
0.401 0.923927
0.402 0.922888
0.403 0.921851
0.404 0.920815
0.405 0.91978
0.406 0.918746
0.407 0.917714
0.408 0.916682
0.409 0.915652
0.41 0.914622
0.411 0.913594
0.412 0.912567
0.413 0.911541
0.414 0.910517
0.415 0.909493
0.416 0.908471
0.417 0.907449
0.418 0.906429
0.419 0.90541
0.42 0.904392
0.421 0.903376
0.422 0.90236
0.423 0.901346
0.424 0.900333
0.425 0.899321
0.426 0.89831
0.427 0.8973
0.428 0.896292
0.429 0.895285
0.43 0.894279
0.431 0.893274
0.432 0.89227
0.433 0.891268
0.434 0.890266
0.435 0.889266
0.436 0.888267
0.437 0.88727
0.438 0.886273
0.439 0.885278
0.44 0.884284
0.441 0.883291
0.442 0.8823
0.443 0.881309
0.444 0.88032
0.445 0.879332
0.446 0.878346
0.447 0.87736
0.448 0.876376
0.449 0.875393
0.45 0.874411
0.451 0.873431
0.452 0.872451
0.453 0.871474
0.454 0.870497
0.455 0.869521
0.456 0.868547
0.457 0.867574
0.458 0.866602
0.459 0.865632
0.46 0.864663
0.461 0.863695
0.462 0.862728
0.463 0.861763
0.464 0.860799
0.465 0.859836
0.466 0.858875
0.467 0.857915
0.468 0.856956
0.469 0.855998
0.47 0.855042
0.471 0.854087
0.472 0.853133
0.473 0.852181
0.474 0.85123
0.475 0.85028
0.476 0.849332
0.477 0.848385
0.478 0.847439
0.479 0.846494
0.48 0.845551
0.481 0.844609
0.482 0.843669
0.483 0.84273
0.484 0.841792
0.485 0.840855
0.486 0.83992
0.487 0.838986
0.488 0.838054
0.489 0.837123
0.49 0.836193
0.491 0.835265
0.492 0.834338
0.493 0.833412
0.494 0.832488
0.495 0.831565
0.496 0.830643
0.497 0.829723
0.498 0.828804
0.499 0.827887
0.5 0.826971
0.501 0.826056
0.502 0.825143
0.503 0.824231
0.504 0.823321
0.505 0.822412
0.506 0.821504
0.507 0.820598
0.508 0.819693
0.509 0.818789
0.51 0.817887
0.511 0.816986
0.512 0.816087
0.513 0.815189
0.514 0.814293
0.515 0.813398
0.516 0.812504
0.517 0.811612
0.518 0.810722
0.519 0.809832
0.52 0.808944
0.521 0.808058
0.522 0.807173
0.523 0.80629
0.524 0.805408
0.525 0.804527
0.526 0.803648
0.527 0.80277
0.528 0.801894
0.529 0.801019
0.53 0.800146
0.531 0.799274
0.532 0.798404
0.533 0.797535
0.534 0.796667
0.535 0.795801
0.536 0.794937
0.537 0.794074
0.538 0.793212
0.539 0.792352
0.54 0.791494
0.541 0.790637
0.542 0.789781
0.543 0.788927
0.544 0.788075
0.545 0.787224
0.546 0.786374
0.547 0.785526
0.548 0.78468
0.549 0.783835
0.55 0.782991
0.551 0.782149
0.552 0.781309
0.553 0.78047
0.554 0.779633
0.555 0.778797
0.556 0.777963
0.557 0.77713
0.558 0.776299
0.559 0.775469
0.56 0.774641
0.561 0.773815
0.562 0.77299
0.563 0.772166
0.564 0.771344
0.565 0.770524
0.566 0.769705
0.567 0.768888
0.568 0.768072
0.569 0.767258
0.57 0.766446
0.571 0.765635
0.572 0.764826
0.573 0.764018
0.574 0.763212
0.575 0.762407
0.576 0.761604
0.577 0.760803
0.578 0.760003
0.579 0.759205
0.58 0.758409
0.581 0.757614
0.582 0.75682
0.583 0.756028
0.584 0.755238
0.585 0.75445
0.586 0.753663
0.587 0.752878
0.588 0.752094
0.589 0.751312
0.59 0.750532
0.591 0.749753
0.592 0.748976
0.593 0.7482
0.594 0.747427
0.595 0.746654
0.596 0.745884
0.597 0.745115
0.598 0.744348
0.599 0.743582
0.6 0.742818
0.601 0.742056
0.602 0.741295
0.603 0.740536
0.604 0.739779
0.605 0.739024
0.606 0.73827
0.607 0.737518
0.608 0.736767
0.609 0.736018
0.61 0.735271
0.611 0.734525
0.612 0.733782
0.613 0.733039
0.614 0.732299
0.615 0.73156
0.616 0.730823
0.617 0.730088
0.618 0.729354
0.619 0.728623
0.62 0.727892
0.621 0.727164
0.622 0.726437
0.623 0.725712
0.624 0.724989
0.625 0.724267
0.626 0.723548
0.627 0.722829
0.628 0.722113
0.629 0.721398
0.63 0.720686
0.631 0.719974
0.632 0.719265
0.633 0.718557
0.634 0.717852
0.635 0.717147
0.636 0.716445
0.637 0.715744
0.638 0.715046
0.639 0.714348
0.64 0.713653
0.641 0.71296
0.642 0.712268
0.643 0.711578
0.644 0.71089
0.645 0.710203
0.646 0.709519
0.647 0.708836
0.648 0.708155
0.649 0.707475
0.65 0.706798
0.651 0.706122
0.652 0.705448
0.653 0.704776
0.654 0.704106
0.655 0.703438
0.656 0.702771
0.657 0.702106
0.658 0.701443
0.659 0.700782
0.66 0.700123
0.661 0.699465
0.662 0.698809
0.663 0.698156
0.664 0.697504
0.665 0.696853
0.666 0.696205
0.667 0.695558
0.668 0.694914
0.669 0.694271
0.67 0.69363
0.671 0.692991
0.672 0.692354
0.673 0.691718
0.674 0.691085
0.675 0.690453
0.676 0.689823
0.677 0.689195
0.678 0.688569
0.679 0.687945
0.68 0.687323
0.681 0.686703
0.682 0.686084
0.683 0.685467
0.684 0.684853
0.685 0.68424
0.686 0.683629
0.687 0.68302
0.688 0.682413
0.689 0.681807
0.69 0.681204
0.691 0.680603
0.692 0.680003
0.693 0.679406
0.694 0.67881
0.695 0.678216
0.696 0.677624
0.697 0.677034
0.698 0.676446
0.699 0.67586
0.7 0.675276
0.701 0.674694
0.702 0.674114
0.703 0.673536
0.704 0.672959
0.705 0.672385
0.706 0.671813
0.707 0.671242
0.708 0.670674
0.709 0.670107
0.71 0.669542
0.711 0.66898
0.712 0.668419
0.713 0.66786
0.714 0.667304
0.715 0.666749
0.716 0.666196
0.717 0.665645
0.718 0.665097
0.719 0.66455
0.72 0.664005
0.721 0.663462
0.722 0.662921
0.723 0.662382
0.724 0.661846
0.725 0.661311
0.726 0.660778
0.727 0.660247
0.728 0.659718
0.729 0.659192
0.73 0.658667
0.731 0.658144
0.732 0.657623
0.733 0.657105
0.734 0.656588
0.735 0.656073
0.736 0.655561
0.737 0.65505
0.738 0.654542
0.739 0.654035
0.74 0.653531
0.741 0.653028
0.742 0.652528
0.743 0.65203
0.744 0.651534
0.745 0.651039
0.746 0.650547
0.747 0.650057
0.748 0.649569
0.749 0.649083
0.75 0.6486
0.751 0.648118
0.752 0.647638
0.753 0.647161
0.754 0.646685
0.755 0.646212
0.756 0.64574
0.757 0.645271
0.758 0.644804
0.759 0.644339
0.76 0.643876
0.761 0.643415
0.762 0.642957
0.763 0.6425
0.764 0.642045
0.765 0.641593
0.766 0.641143
0.767 0.640695
0.768 0.640249
0.769 0.639805
0.77 0.639363
0.771 0.638923
0.772 0.638486
0.773 0.63805
0.774 0.637617
0.775 0.637186
0.776 0.636757
0.777 0.63633
0.778 0.635906
0.779 0.635483
0.78 0.635063
0.781 0.634645
0.782 0.634229
0.783 0.633815
0.784 0.633403
0.785 0.632994
0.786 0.632587
0.787 0.632181
0.788 0.631778
0.789 0.631378
0.79 0.630979
0.791 0.630583
0.792 0.630188
0.793 0.629796
0.794 0.629406
0.795 0.629019
0.796 0.628633
0.797 0.62825
0.798 0.627869
0.799 0.62749
0.8 0.627114
0.801 0.626739
0.802 0.626367
0.803 0.625997
0.804 0.625629
0.805 0.625264
0.806 0.624901
0.807 0.62454
0.808 0.624181
0.809 0.623824
0.81 0.62347
0.811 0.623118
0.812 0.622768
0.813 0.62242
0.814 0.622075
0.815 0.621732
0.816 0.621391
0.817 0.621052
0.818 0.620716
0.819 0.620382
0.82 0.62005
0.821 0.619721
0.822 0.619394
0.823 0.619069
0.824 0.618746
0.825 0.618425
0.826 0.618107
0.827 0.617792
0.828 0.617478
0.829 0.617167
0.83 0.616858
0.831 0.616551
0.832 0.616247
0.833 0.615945
0.834 0.615645
0.835 0.615347
0.836 0.615052
0.837 0.614759
0.838 0.614469
0.839 0.614181
0.84 0.613895
0.841 0.613611
0.842 0.61333
0.843 0.613051
0.844 0.612775
0.845 0.612501
0.846 0.612229
0.847 0.611959
0.848 0.611692
0.849 0.611427
0.85 0.611165
0.851 0.610905
0.852 0.610647
0.853 0.610391
0.854 0.610138
0.855 0.609888
0.856 0.609639
0.857 0.609393
0.858 0.60915
0.859 0.608909
0.86 0.60867
0.861 0.608433
0.862 0.608199
0.863 0.607968
0.864 0.607738
0.865 0.607511
0.866 0.607287
0.867 0.607065
0.868 0.606845
0.869 0.606628
0.87 0.606413
0.871 0.606201
0.872 0.60599
0.873 0.605783
0.874 0.605578
0.875 0.605375
0.876 0.605174
0.877 0.604976
0.878 0.604781
0.879 0.604588
0.88 0.604397
0.881 0.604209
0.882 0.604023
0.883 0.60384
0.884 0.603659
0.885 0.60348
0.886 0.603304
0.887 0.603131
0.888 0.60296
0.889 0.602791
0.89 0.602625
0.891 0.602461
0.892 0.6023
0.893 0.602141
0.894 0.601985
0.895 0.601831
0.896 0.601679
0.897 0.601531
0.898 0.601384
0.899 0.60124
0.9 0.601099
0.901 0.60096
0.902 0.600823
0.903 0.600689
0.904 0.600558
0.905 0.600429
0.906 0.600303
0.907 0.600179
0.908 0.600057
0.909 0.599938
0.91 0.599822
0.911 0.599708
0.912 0.599597
0.913 0.599488
0.914 0.599382
0.915 0.599278
0.916 0.599177
0.917 0.599078
0.918 0.598982
0.919 0.598888
0.92 0.598797
0.921 0.598709
0.922 0.598623
0.923 0.598539
0.924 0.598458
0.925 0.59838
0.926 0.598304
0.927 0.598231
0.928 0.59816
0.929 0.598092
0.93 0.598027
0.931 0.597964
0.932 0.597904
0.933 0.597846
0.934 0.597791
0.935 0.597738
0.936 0.597688
0.937 0.597641
0.938 0.597596
0.939 0.597554
0.94 0.597514
0.941 0.597477
0.942 0.597443
0.943 0.597411
0.944 0.597382
0.945 0.597355
0.946 0.597331
0.947 0.59731
0.948 0.597291
0.949 0.597275
0.95 0.597262
0.951 0.597251
0.952 0.597243
0.953 0.597237
0.954 0.597234
0.955 0.597234
0.956 0.597236
0.957 0.597241
0.958 0.597249
0.959 0.597259
0.96 0.597272
0.961 0.597288
0.962 0.597306
0.963 0.597327
0.964 0.597351
0.965 0.597377
0.966 0.597406
0.967 0.597438
0.968 0.597472
0.969 0.597509
0.97 0.597549
0.971 0.597591
0.972 0.597636
0.973 0.597684
0.974 0.597734
0.975 0.597787
0.976 0.597843
0.977 0.597902
0.978 0.597963
0.979 0.598027
0.98 0.598094
0.981 0.598163
0.982 0.598235
0.983 0.59831
0.984 0.598387
0.985 0.598468
0.986 0.598551
0.987 0.598636
0.988 0.598725
0.989 0.598816
0.99 0.59891
0.991 0.599006
0.992 0.599106
0.993 0.599208
0.994 0.599313
0.995 0.59942
0.996 0.599531
0.997 0.599644
0.998 0.59976
0.999 0.599879
1 0.6
1.001 0.600124
1.002 0.600251
1.003 0.600381
1.004 0.600513
1.005 0.600649
1.006 0.600787
1.007 0.600927
1.008 0.601071
1.009 0.601217
1.01 0.601366
1.011 0.601517
1.012 0.601671
1.013 0.601828
1.014 0.601988
1.015 0.60215
1.016 0.602315
1.017 0.602483
1.018 0.602653
1.019 0.602826
1.02 0.603001
1.021 0.603179
1.022 0.60336
1.023 0.603544
1.024 0.60373
1.025 0.603918
1.026 0.60411
1.027 0.604303
1.028 0.6045
1.029 0.604699
1.03 0.604901
1.031 0.605105
1.032 0.605311
1.033 0.605521
1.034 0.605733
1.035 0.605947
1.036 0.606164
1.037 0.606383
1.038 0.606605
1.039 0.60683
1.04 0.607057
1.041 0.607286
1.042 0.607518
1.043 0.607753
1.044 0.60799
1.045 0.608229
1.046 0.608471
1.047 0.608715
1.048 0.608962
1.049 0.609212
1.05 0.609463
1.051 0.609717
1.052 0.609974
1.053 0.610233
1.054 0.610494
1.055 0.610758
1.056 0.611025
1.057 0.611293
1.058 0.611564
1.059 0.611838
1.06 0.612113
1.061 0.612392
1.062 0.612672
1.063 0.612955
1.064 0.61324
1.065 0.613528
1.066 0.613818
1.067 0.61411
1.068 0.614404
1.069 0.614701
1.07 0.615001
1.071 0.615302
1.072 0.615606
1.073 0.615912
1.074 0.61622
1.075 0.616531
1.076 0.616844
1.077 0.617159
1.078 0.617476
1.079 0.617796
1.08 0.618118
1.081 0.618442
1.082 0.618769
1.083 0.619097
1.084 0.619428
1.085 0.619761
1.086 0.620096
1.087 0.620434
1.088 0.620773
1.089 0.621115
1.09 0.621459
1.091 0.621805
1.092 0.622154
1.093 0.622504
1.094 0.622857
1.095 0.623212
1.096 0.623569
1.097 0.623928
1.098 0.624289
1.099 0.624652
1.1 0.625017
1.101 0.625385
1.102 0.625755
1.103 0.626126
1.104 0.6265
1.105 0.626876
1.106 0.627254
1.107 0.627634
1.108 0.628016
1.109 0.6284
1.11 0.628786
1.111 0.629174
1.112 0.629564
1.113 0.629957
1.114 0.630351
1.115 0.630747
1.116 0.631146
1.117 0.631546
1.118 0.631948
1.119 0.632352
1.12 0.632759
1.121 0.633167
1.122 0.633577
1.123 0.633989
1.124 0.634403
1.125 0.634819
1.126 0.635237
1.127 0.635657
1.128 0.636079
1.129 0.636502
1.13 0.636928
1.131 0.637356
1.132 0.637785
1.133 0.638216
1.134 0.63865
1.135 0.639085
1.136 0.639522
1.137 0.639961
1.138 0.640401
1.139 0.640844
1.14 0.641288
1.141 0.641734
1.142 0.642183
1.143 0.642632
1.144 0.643084
1.145 0.643538
1.146 0.643993
1.147 0.64445
1.148 0.644909
1.149 0.64537
1.15 0.645832
1.151 0.646296
1.152 0.646762
1.153 0.64723
1.154 0.6477
1.155 0.648171
1.156 0.648644
1.157 0.649119
1.158 0.649595
1.159 0.650073
1.16 0.650553
1.161 0.651035
1.162 0.651518
1.163 0.652003
1.164 0.65249
1.165 0.652978
1.166 0.653468
1.167 0.65396
1.168 0.654453
1.169 0.654948
1.17 0.655445
1.171 0.655943
1.172 0.656443
1.173 0.656945
1.174 0.657448
1.175 0.657953
1.176 0.658459
1.177 0.658967
1.178 0.659477
1.179 0.659988
1.18 0.660501
1.181 0.661015
1.182 0.661531
1.183 0.662048
1.184 0.662567
1.185 0.663088
1.186 0.66361
1.187 0.664134
1.188 0.664659
1.189 0.665185
1.19 0.665714
1.191 0.666243
1.192 0.666774
1.193 0.667307
1.194 0.667841
1.195 0.668377
1.196 0.668914
1.197 0.669453
1.198 0.669993
1.199 0.670534
1.2 0.671077
1.201 0.671622
1.202 0.672167
1.203 0.672715
1.204 0.673263
1.205 0.673813
1.206 0.674365
1.207 0.674918
1.208 0.675472
1.209 0.676028
1.21 0.676585
1.211 0.677143
1.212 0.677703
1.213 0.678264
1.214 0.678827
1.215 0.67939
1.216 0.679956
1.217 0.680522
1.218 0.68109
1.219 0.681659
1.22 0.68223
1.221 0.682801
1.222 0.683375
1.223 0.683949
1.224 0.684525
1.225 0.685102
1.226 0.68568
1.227 0.686259
1.228 0.68684
1.229 0.687422
1.23 0.688005
1.231 0.68859
1.232 0.689176
1.233 0.689763
1.234 0.690351
1.235 0.69094
1.236 0.691531
1.237 0.692123
1.238 0.692715
1.239 0.69331
1.24 0.693905
1.241 0.694502
1.242 0.695099
1.243 0.695698
1.244 0.696298
1.245 0.696899
1.246 0.697502
1.247 0.698105
1.248 0.69871
1.249 0.699315
1.25 0.699922
1.251 0.70053
1.252 0.701139
1.253 0.701749
1.254 0.70236
1.255 0.702973
1.256 0.703586
1.257 0.704201
1.258 0.704816
1.259 0.705433
1.26 0.70605
1.261 0.706669
1.262 0.707288
1.263 0.707909
1.264 0.708531
1.265 0.709154
1.266 0.709777
1.267 0.710402
1.268 0.711028
1.269 0.711655
1.27 0.712282
1.271 0.712911
1.272 0.713541
1.273 0.714171
1.274 0.714803
1.275 0.715435
1.276 0.716069
1.277 0.716703
1.278 0.717338
1.279 0.717975
1.28 0.718612
1.281 0.71925
1.282 0.719889
1.283 0.720529
1.284 0.721169
1.285 0.721811
1.286 0.722454
1.287 0.723097
1.288 0.723741
1.289 0.724386
1.29 0.725032
1.291 0.725679
1.292 0.726327
1.293 0.726975
1.294 0.727624
1.295 0.728274
1.296 0.728925
1.297 0.729577
1.298 0.73023
1.299 0.730883
1.3 0.731537
1.301 0.732192
1.302 0.732847
1.303 0.733504
1.304 0.734161
1.305 0.734819
1.306 0.735477
1.307 0.736137
1.308 0.736797
1.309 0.737458
1.31 0.738119
1.311 0.738781
1.312 0.739444
1.313 0.740108
1.314 0.740772
1.315 0.741437
1.316 0.742103
1.317 0.742769
1.318 0.743436
1.319 0.744104
1.32 0.744772
1.321 0.745441
1.322 0.746111
1.323 0.746781
1.324 0.747452
1.325 0.748123
1.326 0.748796
1.327 0.749468
1.328 0.750142
1.329 0.750815
1.33 0.75149
1.331 0.752165
1.332 0.75284
1.333 0.753517
1.334 0.754193
1.335 0.754871
1.336 0.755548
1.337 0.756227
1.338 0.756906
1.339 0.757585
1.34 0.758265
1.341 0.758945
1.342 0.759626
1.343 0.760308
1.344 0.76099
1.345 0.761672
1.346 0.762355
1.347 0.763038
1.348 0.763722
1.349 0.764406
1.35 0.765091
1.351 0.765776
1.352 0.766462
1.353 0.767148
1.354 0.767834
1.355 0.768521
1.356 0.769208
1.357 0.769896
1.358 0.770584
1.359 0.771273
1.36 0.771962
1.361 0.772651
1.362 0.77334
1.363 0.77403
1.364 0.774721
1.365 0.775411
1.366 0.776102
1.367 0.776794
1.368 0.777485
1.369 0.778177
1.37 0.77887
1.371 0.779562
1.372 0.780255
1.373 0.780949
1.374 0.781642
1.375 0.782336
1.376 0.78303
1.377 0.783724
1.378 0.784419
1.379 0.785114
1.38 0.785809
1.381 0.786504
1.382 0.7872
1.383 0.787896
1.384 0.788592
1.385 0.789288
1.386 0.789985
1.387 0.790682
1.388 0.791378
1.389 0.792076
1.39 0.792773
1.391 0.79347
1.392 0.794168
1.393 0.794866
1.394 0.795564
1.395 0.796262
1.396 0.79696
1.397 0.797658
1.398 0.798357
1.399 0.799056
1.4 0.799754
1.401 0.800453
1.402 0.801152
1.403 0.801851
1.404 0.80255
1.405 0.80325
1.406 0.803949
1.407 0.804648
1.408 0.805348
1.409 0.806047
1.41 0.806747
1.411 0.807447
1.412 0.808146
1.413 0.808846
1.414 0.809546
1.415 0.810245
1.416 0.810945
1.417 0.811645
1.418 0.812345
1.419 0.813045
1.42 0.813744
1.421 0.814444
1.422 0.815144
1.423 0.815843
1.424 0.816543
1.425 0.817242
1.426 0.817942
1.427 0.818641
1.428 0.819341
1.429 0.82004
1.43 0.820739
1.431 0.821438
1.432 0.822137
1.433 0.822836
1.434 0.823535
1.435 0.824234
1.436 0.824933
1.437 0.825631
1.438 0.826329
1.439 0.827028
1.44 0.827726
1.441 0.828423
1.442 0.829121
1.443 0.829819
1.444 0.830516
1.445 0.831213
1.446 0.83191
1.447 0.832607
1.448 0.833304
1.449 0.834
1.45 0.834696
1.451 0.835392
1.452 0.836088
1.453 0.836784
1.454 0.837479
1.455 0.838174
1.456 0.838869
1.457 0.839563
1.458 0.840258
1.459 0.840952
1.46 0.841645
1.461 0.842339
1.462 0.843032
1.463 0.843725
1.464 0.844417
1.465 0.845109
1.466 0.845801
1.467 0.846493
1.468 0.847184
1.469 0.847875
1.47 0.848565
1.471 0.849256
1.472 0.849945
1.473 0.850635
1.474 0.851324
1.475 0.852013
1.476 0.852701
1.477 0.853389
1.478 0.854076
1.479 0.854763
1.48 0.85545
1.481 0.856136
1.482 0.856822
1.483 0.857508
1.484 0.858193
1.485 0.858877
1.486 0.859561
1.487 0.860245
1.488 0.860928
1.489 0.861611
1.49 0.862293
1.491 0.862975
1.492 0.863656
1.493 0.864337
1.494 0.865017
1.495 0.865697
1.496 0.866376
1.497 0.867054
1.498 0.867733
1.499 0.86841
1.5 0.869087
1.501 0.869764
1.502 0.87044
1.503 0.871115
1.504 0.87179
1.505 0.872464
1.506 0.873138
1.507 0.873811
1.508 0.874483
1.509 0.875155
1.51 0.875826
1.511 0.876497
1.512 0.877167
1.513 0.877836
1.514 0.878505
1.515 0.879173
1.516 0.87984
1.517 0.880507
1.518 0.881173
1.519 0.881838
1.52 0.882503
1.521 0.883167
1.522 0.88383
1.523 0.884493
1.524 0.885155
1.525 0.885816
1.526 0.886477
1.527 0.887137
1.528 0.887796
1.529 0.888454
1.53 0.889111
1.531 0.889768
1.532 0.890424
1.533 0.89108
1.534 0.891734
1.535 0.892388
1.536 0.893041
1.537 0.893693
1.538 0.894344
1.539 0.894995
1.54 0.895645
1.541 0.896294
1.542 0.896942
1.543 0.897589
1.544 0.898235
1.545 0.898881
1.546 0.899526
1.547 0.90017
1.548 0.900813
1.549 0.901455
1.55 0.902096
1.551 0.902736
1.552 0.903376
1.553 0.904015
1.554 0.904652
1.555 0.905289
1.556 0.905925
1.557 0.90656
1.558 0.907194
1.559 0.907827
1.56 0.908459
1.561 0.90909
1.562 0.90972
1.563 0.91035
1.564 0.910978
1.565 0.911605
1.566 0.912231
1.567 0.912857
1.568 0.913481
1.569 0.914104
1.57 0.914727
1.571 0.915348
1.572 0.915968
1.573 0.916588
1.574 0.917206
1.575 0.917823
1.576 0.918439
1.577 0.919054
1.578 0.919668
1.579 0.920281
1.58 0.920893
1.581 0.921504
1.582 0.922113
1.583 0.922722
1.584 0.923329
1.585 0.923936
1.586 0.924541
1.587 0.925145
1.588 0.925748
1.589 0.92635
1.59 0.92695
1.591 0.92755
1.592 0.928148
1.593 0.928746
1.594 0.929342
1.595 0.929936
1.596 0.93053
1.597 0.931123
1.598 0.931714
1.599 0.932304
1.6 0.932893
1.601 0.933481
1.602 0.934067
1.603 0.934652
1.604 0.935236
1.605 0.935819
1.606 0.9364
1.607 0.936981
1.608 0.93756
1.609 0.938137
1.61 0.938714
1.611 0.939289
1.612 0.939863
1.613 0.940435
1.614 0.941007
1.615 0.941577
1.616 0.942145
1.617 0.942712
1.618 0.943278
1.619 0.943843
1.62 0.944406
1.621 0.944968
1.622 0.945529
1.623 0.946088
1.624 0.946646
1.625 0.947202
1.626 0.947758
1.627 0.948311
1.628 0.948864
1.629 0.949414
1.63 0.949964
1.631 0.950512
1.632 0.951059
1.633 0.951604
1.634 0.952148
1.635 0.95269
1.636 0.953231
1.637 0.95377
1.638 0.954308
1.639 0.954845
1.64 0.95538
1.641 0.955913
1.642 0.956445
1.643 0.956976
1.644 0.957505
1.645 0.958033
1.646 0.958559
1.647 0.959083
1.648 0.959606
1.649 0.960128
1.65 0.960648
1.651 0.961166
1.652 0.961683
1.653 0.962198
1.654 0.962712
1.655 0.963224
1.656 0.963734
1.657 0.964243
1.658 0.96475
1.659 0.965256
1.66 0.96576
1.661 0.966263
1.662 0.966764
1.663 0.967263
1.664 0.967761
1.665 0.968256
1.666 0.968751
1.667 0.969243
1.668 0.969734
1.669 0.970224
1.67 0.970712
1.671 0.971197
1.672 0.971682
1.673 0.972164
1.674 0.972645
1.675 0.973124
1.676 0.973602
1.677 0.974078
1.678 0.974552
1.679 0.975024
1.68 0.975495
1.681 0.975963
1.682 0.97643
1.683 0.976896
1.684 0.977359
1.685 0.977821
1.686 0.978281
1.687 0.978739
1.688 0.979195
1.689 0.97965
1.69 0.980103
1.691 0.980554
1.692 0.981003
1.693 0.98145
1.694 0.981896
1.695 0.982339
1.696 0.982781
1.697 0.983221
1.698 0.983659
1.699 0.984095
1.7 0.984529
1.701 0.984962
1.702 0.985392
1.703 0.985821
1.704 0.986248
1.705 0.986673
1.706 0.987096
1.707 0.987517
1.708 0.987936
1.709 0.988353
1.71 0.988768
1.711 0.989181
1.712 0.989593
1.713 0.990002
1.714 0.990409
1.715 0.990815
1.716 0.991218
1.717 0.99162
1.718 0.992019
1.719 0.992416
1.72 0.992812
1.721 0.993205
1.722 0.993597
1.723 0.993986
1.724 0.994373
1.725 0.994759
1.726 0.995142
1.727 0.995523
1.728 0.995902
1.729 0.996279
1.73 0.996654
1.731 0.997027
1.732 0.997398
1.733 0.997767
1.734 0.998133
1.735 0.998498
1.736 0.99886
1.737 0.999221
1.738 0.999579
1.739 0.999935
1.74 1.00029
1.741 1.00064
1.742 1.00099
1.743 1.00134
1.744 1.00168
1.745 1.00203
1.746 1.00237
1.747 1.00271
1.748 1.00304
1.749 1.00338
1.75 1.00371
1.751 1.00404
1.752 1.00437
1.753 1.00469
1.754 1.00501
1.755 1.00534
1.756 1.00565
1.757 1.00597
1.758 1.00629
1.759 1.0066
1.76 1.00691
1.761 1.00721
1.762 1.00752
1.763 1.00782
1.764 1.00812
1.765 1.00842
1.766 1.00872
1.767 1.00901
1.768 1.0093
1.769 1.00959
1.77 1.00988
1.771 1.01016
1.772 1.01044
1.773 1.01072
1.774 1.011
1.775 1.01127
1.776 1.01155
1.777 1.01182
1.778 1.01209
1.779 1.01235
1.78 1.01261
1.781 1.01287
1.782 1.01313
1.783 1.01339
1.784 1.01364
1.785 1.01389
1.786 1.01414
1.787 1.01439
1.788 1.01463
1.789 1.01487
1.79 1.01511
1.791 1.01534
1.792 1.01558
1.793 1.01581
1.794 1.01604
1.795 1.01626
1.796 1.01649
1.797 1.01671
1.798 1.01693
1.799 1.01714
1.8 1.01735
1.801 1.01757
1.802 1.01777
1.803 1.01798
1.804 1.01818
1.805 1.01838
1.806 1.01858
1.807 1.01878
1.808 1.01897
1.809 1.01916
1.81 1.01935
1.811 1.01953
1.812 1.01971
1.813 1.01989
1.814 1.02007
1.815 1.02025
1.816 1.02042
1.817 1.02059
1.818 1.02075
1.819 1.02092
1.82 1.02108
1.821 1.02124
1.822 1.02139
1.823 1.02154
1.824 1.0217
1.825 1.02184
1.826 1.02199
1.827 1.02213
1.828 1.02227
1.829 1.02241
1.83 1.02254
1.831 1.02267
1.832 1.0228
1.833 1.02293
1.834 1.02305
1.835 1.02317
1.836 1.02329
1.837 1.0234
1.838 1.02351
1.839 1.02362
1.84 1.02373
1.841 1.02383
1.842 1.02393
1.843 1.02403
1.844 1.02413
1.845 1.02422
1.846 1.02431
1.847 1.02439
1.848 1.02448
1.849 1.02456
1.85 1.02464
1.851 1.02471
1.852 1.02478
1.853 1.02485
1.854 1.02492
1.855 1.02498
1.856 1.02504
1.857 1.0251
1.858 1.02516
1.859 1.02521
1.86 1.02526
1.861 1.0253
1.862 1.02535
1.863 1.02539
1.864 1.02542
1.865 1.02546
1.866 1.02549
1.867 1.02552
1.868 1.02554
1.869 1.02556
1.87 1.02558
1.871 1.0256
1.872 1.02561
1.873 1.02562
1.874 1.02563
1.875 1.02563
1.876 1.02563
1.877 1.02563
1.878 1.02563
1.879 1.02562
1.88 1.02561
1.881 1.02559
1.882 1.02557
1.883 1.02555
1.884 1.02553
1.885 1.0255
1.886 1.02547
1.887 1.02544
1.888 1.0254
1.889 1.02537
1.89 1.02532
1.891 1.02528
1.892 1.02523
1.893 1.02518
1.894 1.02512
1.895 1.02506
1.896 1.025
1.897 1.02494
1.898 1.02487
1.899 1.0248
1.9 1.02473
1.901 1.02465
1.902 1.02457
1.903 1.02448
1.904 1.0244
1.905 1.02431
1.906 1.02421
1.907 1.02412
1.908 1.02402
1.909 1.02391
1.91 1.02381
1.911 1.0237
1.912 1.02358
1.913 1.02347
1.914 1.02335
1.915 1.02322
1.916 1.0231
1.917 1.02297
1.918 1.02284
1.919 1.0227
1.92 1.02256
1.921 1.02242
1.922 1.02227
1.923 1.02212
1.924 1.02197
1.925 1.02181
1.926 1.02165
1.927 1.02149
1.928 1.02132
1.929 1.02115
1.93 1.02098
1.931 1.0208
1.932 1.02062
1.933 1.02044
1.934 1.02025
1.935 1.02006
1.936 1.01987
1.937 1.01967
1.938 1.01947
1.939 1.01927
1.94 1.01906
1.941 1.01885
1.942 1.01863
1.943 1.01841
1.944 1.01819
1.945 1.01797
1.946 1.01774
1.947 1.01751
1.948 1.01727
1.949 1.01703
1.95 1.01679
1.951 1.01654
1.952 1.01629
1.953 1.01604
1.954 1.01578
1.955 1.01552
1.956 1.01526
1.957 1.01499
1.958 1.01472
1.959 1.01445
1.96 1.01417
1.961 1.01388
1.962 1.0136
1.963 1.01331
1.964 1.01302
1.965 1.01272
1.966 1.01242
1.967 1.01212
1.968 1.01181
1.969 1.0115
1.97 1.01118
1.971 1.01086
1.972 1.01054
1.973 1.01022
1.974 1.00989
1.975 1.00955
1.976 1.00922
1.977 1.00888
1.978 1.00853
1.979 1.00818
1.98 1.00783
1.981 1.00748
1.982 1.00712
1.983 1.00675
1.984 1.00639
1.985 1.00602
1.986 1.00564
1.987 1.00526
1.988 1.00488
1.989 1.0045
1.99 1.00411
1.991 1.00371
1.992 1.00332
1.993 1.00291
1.994 1.00251
1.995 1.0021
1.996 1.00169
1.997 1.00127
1.998 1.00085
1.999 1.00043
2 1
2.001 0.999568
2.002 0.999133
2.003 0.998693
2.004 0.99825
2.005 0.997802
2.006 0.997352
2.007 0.996897
2.008 0.996438
2.009 0.995976
2.01 0.99551
2.011 0.99504
2.012 0.994567
2.013 0.99409
2.014 0.993609
2.015 0.993124
2.016 0.992636
2.017 0.992144
2.018 0.991649
2.019 0.99115
2.02 0.990647
2.021 0.990141
2.022 0.989631
2.023 0.989117
2.024 0.9886
2.025 0.98808
2.026 0.987556
2.027 0.987028
2.028 0.986497
2.029 0.985963
2.03 0.985425
2.031 0.984884
2.032 0.984339
2.033 0.983791
2.034 0.983239
2.035 0.982684
2.036 0.982126
2.037 0.981564
2.038 0.980999
2.039 0.980431
2.04 0.979859
2.041 0.979284
2.042 0.978706
2.043 0.978124
2.044 0.977539
2.045 0.976951
2.046 0.97636
2.047 0.975766
2.048 0.975168
2.049 0.974567
2.05 0.973963
2.051 0.973356
2.052 0.972746
2.053 0.972132
2.054 0.971516
2.055 0.970896
2.056 0.970273
2.057 0.969647
2.058 0.969018
2.059 0.968386
2.06 0.967751
2.061 0.967114
2.062 0.966473
2.063 0.965829
2.064 0.965182
2.065 0.964532
2.066 0.963879
2.067 0.963223
2.068 0.962565
2.069 0.961903
2.07 0.961239
2.071 0.960571
2.072 0.959901
2.073 0.959228
2.074 0.958552
2.075 0.957874
2.076 0.957192
2.077 0.956508
2.078 0.955821
2.079 0.955131
2.08 0.954439
2.081 0.953744
2.082 0.953046
2.083 0.952345
2.084 0.951642
2.085 0.950936
2.086 0.950227
2.087 0.949516
2.088 0.948802
2.089 0.948086
2.09 0.947367
2.091 0.946645
2.092 0.945921
2.093 0.945194
2.094 0.944465
2.095 0.943733
2.096 0.942999
2.097 0.942262
2.098 0.941523
2.099 0.940781
2.1 0.940037
2.101 0.93929
2.102 0.938541
2.103 0.937789
2.104 0.937035
2.105 0.936279
2.106 0.93552
2.107 0.934759
2.108 0.933996
2.109 0.93323
2.11 0.932462
2.111 0.931692
2.112 0.93092
2.113 0.930145
2.114 0.929368
2.115 0.928588
2.116 0.927807
2.117 0.927023
2.118 0.926237
2.119 0.925449
2.12 0.924659
2.121 0.923866
2.122 0.923072
2.123 0.922275
2.124 0.921476
2.125 0.920676
2.126 0.919873
2.127 0.919068
2.128 0.918261
2.129 0.917451
2.13 0.91664
2.131 0.915827
2.132 0.915012
2.133 0.914195
2.134 0.913376
2.135 0.912555
2.136 0.911732
2.137 0.910907
2.138 0.91008
2.139 0.909252
2.14 0.908421
2.141 0.907589
2.142 0.906754
2.143 0.905918
2.144 0.90508
2.145 0.904241
2.146 0.903399
2.147 0.902556
2.148 0.901711
2.149 0.900864
2.15 0.900015
2.151 0.899165
2.152 0.898313
2.153 0.897459
2.154 0.896604
2.155 0.895747
2.156 0.894888
2.157 0.894028
2.158 0.893166
2.159 0.892303
2.16 0.891438
2.161 0.890571
2.162 0.889703
2.163 0.888833
2.164 0.887962
2.165 0.887089
2.166 0.886215
2.167 0.885339
2.168 0.884461
2.169 0.883583
2.17 0.882702
2.171 0.881821
2.172 0.880938
2.173 0.880053
2.174 0.879167
2.175 0.87828
2.176 0.877392
2.177 0.876502
2.178 0.87561
2.179 0.874718
2.18 0.873824
2.181 0.872929
2.182 0.872032
2.183 0.871135
2.184 0.870236
2.185 0.869335
2.186 0.868434
2.187 0.867531
2.188 0.866628
2.189 0.865723
2.19 0.864817
2.191 0.863909
2.192 0.863001
2.193 0.862091
2.194 0.861181
2.195 0.860269
2.196 0.859356
2.197 0.858442
2.198 0.857527
2.199 0.856612
2.2 0.855695
2.201 0.854777
2.202 0.853858
2.203 0.852938
2.204 0.852017
2.205 0.851095
2.206 0.850172
2.207 0.849249
2.208 0.848324
2.209 0.847399
2.21 0.846472
2.211 0.845545
2.212 0.844617
2.213 0.843688
2.214 0.842759
2.215 0.841828
2.216 0.840897
2.217 0.839965
2.218 0.839032
2.219 0.838099
2.22 0.837165
2.221 0.83623
2.222 0.835294
2.223 0.834358
2.224 0.833421
2.225 0.832483
2.226 0.831545
2.227 0.830606
2.228 0.829666
2.229 0.828726
2.23 0.827785
2.231 0.826844
2.232 0.825902
2.233 0.824959
2.234 0.824017
2.235 0.823073
2.236 0.822129
2.237 0.821185
2.238 0.82024
2.239 0.819294
2.24 0.818349
2.241 0.817402
2.242 0.816456
2.243 0.815509
2.244 0.814561
2.245 0.813613
2.246 0.812665
2.247 0.811717
2.248 0.810768
2.249 0.809819
2.25 0.808869
2.251 0.80792
2.252 0.80697
2.253 0.806019
2.254 0.805069
2.255 0.804118
2.256 0.803167
2.257 0.802216
2.258 0.801265
2.259 0.800313
2.26 0.799362
2.261 0.79841
2.262 0.797458
2.263 0.796506
2.264 0.795554
2.265 0.794602
2.266 0.793649
2.267 0.792697
2.268 0.791745
2.269 0.790792
2.27 0.78984
2.271 0.788888
2.272 0.787935
2.273 0.786983
2.274 0.786031
2.275 0.785078
2.276 0.784126
2.277 0.783174
2.278 0.782222
2.279 0.78127
2.28 0.780319
2.281 0.779367
2.282 0.778416
2.283 0.777464
2.284 0.776513
2.285 0.775563
2.286 0.774612
2.287 0.773662
2.288 0.772711
2.289 0.771762
2.29 0.770812
2.291 0.769863
2.292 0.768914
2.293 0.767965
2.294 0.767017
2.295 0.766069
2.296 0.765121
2.297 0.764174
2.298 0.763227
2.299 0.76228
2.3 0.761334
2.301 0.760389
2.302 0.759444
2.303 0.758499
2.304 0.757555
2.305 0.756611
2.306 0.755668
2.307 0.754725
2.308 0.753783
2.309 0.752841
2.31 0.7519
2.311 0.75096
2.312 0.75002
2.313 0.749081
2.314 0.748142
2.315 0.747204
2.316 0.746267
2.317 0.74533
2.318 0.744394
2.319 0.743459
2.32 0.742524
2.321 0.74159
2.322 0.740657
2.323 0.739724
2.324 0.738793
2.325 0.737862
2.326 0.736932
2.327 0.736003
2.328 0.735074
2.329 0.734146
2.33 0.73322
2.331 0.732294
2.332 0.731369
2.333 0.730445
2.334 0.729521
2.335 0.728599
2.336 0.727678
2.337 0.726757
2.338 0.725838
2.339 0.724919
2.34 0.724002
2.341 0.723085
2.342 0.72217
2.343 0.721256
2.344 0.720342
2.345 0.71943
2.346 0.718519
2.347 0.717609
2.348 0.7167
2.349 0.715792
2.35 0.714885
2.351 0.713979
2.352 0.713075
2.353 0.712172
2.354 0.71127
2.355 0.710369
2.356 0.709469
2.357 0.708571
2.358 0.707674
2.359 0.706778
2.36 0.705883
2.361 0.70499
2.362 0.704098
2.363 0.703208
2.364 0.702318
2.365 0.70143
2.366 0.700544
2.367 0.699658
2.368 0.698775
2.369 0.697892
2.37 0.697011
2.371 0.696132
2.372 0.695254
2.373 0.694377
2.374 0.693502
2.375 0.692628
2.376 0.691756
2.377 0.690886
2.378 0.690017
2.379 0.689149
2.38 0.688283
2.381 0.687419
2.382 0.686556
2.383 0.685695
2.384 0.684835
2.385 0.683978
2.386 0.683121
2.387 0.682267
2.388 0.681414
2.389 0.680563
2.39 0.679713
2.391 0.678866
2.392 0.67802
2.393 0.677175
2.394 0.676333
2.395 0.675492
2.396 0.674653
2.397 0.673816
2.398 0.672981
2.399 0.672148
2.4 0.671316
2.401 0.670487
2.402 0.669659
2.403 0.668833
2.404 0.668009
2.405 0.667187
2.406 0.666367
2.407 0.665549
2.408 0.664732
2.409 0.663918
2.41 0.663106
2.411 0.662296
2.412 0.661488
2.413 0.660682
2.414 0.659878
2.415 0.659076
2.416 0.658276
2.417 0.657478
2.418 0.656682
2.419 0.655889
2.42 0.655097
2.421 0.654308
2.422 0.653521
2.423 0.652736
2.424 0.651953
2.425 0.651173
2.426 0.650395
2.427 0.649619
2.428 0.648845
2.429 0.648073
2.43 0.647304
2.431 0.646537
2.432 0.645773
2.433 0.645011
2.434 0.644251
2.435 0.643493
2.436 0.642738
2.437 0.641985
2.438 0.641235
2.439 0.640487
2.44 0.639741
2.441 0.638998
2.442 0.638258
2.443 0.637519
2.444 0.636784
2.445 0.636051
2.446 0.63532
2.447 0.634592
2.448 0.633866
2.449 0.633143
2.45 0.632423
2.451 0.631705
2.452 0.63099
2.453 0.630277
2.454 0.629567
2.455 0.62886
2.456 0.628155
2.457 0.627453
2.458 0.626754
2.459 0.626057
2.46 0.625363
2.461 0.624672
2.462 0.623984
2.463 0.623298
2.464 0.622615
2.465 0.621935
2.466 0.621258
2.467 0.620583
2.468 0.619911
2.469 0.619243
2.47 0.618577
2.471 0.617914
2.472 0.617253
2.473 0.616596
2.474 0.615942
2.475 0.61529
2.476 0.614642
2.477 0.613996
2.478 0.613354
2.479 0.612714
2.48 0.612078
2.481 0.611444
2.482 0.610814
2.483 0.610186
2.484 0.609562
2.485 0.608941
2.486 0.608322
2.487 0.607707
2.488 0.607095
2.489 0.606486
2.49 0.605881
2.491 0.605278
2.492 0.604679
2.493 0.604083
2.494 0.60349
2.495 0.6029
2.496 0.602313
2.497 0.60173
2.498 0.60115
2.499 0.600573
2.5 0.6
2.501 0.59943
2.502 0.598863
2.503 0.598299
2.504 0.597739
2.505 0.597182
2.506 0.596629
2.507 0.596078
2.508 0.595531
2.509 0.594987
2.51 0.594446
2.511 0.593909
2.512 0.593375
2.513 0.592844
2.514 0.592316
2.515 0.591792
2.516 0.59127
2.517 0.590752
2.518 0.590238
2.519 0.589726
2.52 0.589217
2.521 0.588712
2.522 0.58821
2.523 0.587711
2.524 0.587215
2.525 0.586723
2.526 0.586233
2.527 0.585747
2.528 0.585264
2.529 0.584784
2.53 0.584307
2.531 0.583833
2.532 0.583362
2.533 0.582895
2.534 0.58243
2.535 0.581969
2.536 0.581511
2.537 0.581055
2.538 0.580603
2.539 0.580154
2.54 0.579708
2.541 0.579265
2.542 0.578826
2.543 0.578389
2.544 0.577955
2.545 0.577524
2.546 0.577097
2.547 0.576672
2.548 0.57625
2.549 0.575832
2.55 0.575416
2.551 0.575004
2.552 0.574594
2.553 0.574187
2.554 0.573784
2.555 0.573383
2.556 0.572985
2.557 0.572591
2.558 0.572199
2.559 0.57181
2.56 0.571424
2.561 0.571041
2.562 0.570661
2.563 0.570284
2.564 0.56991
2.565 0.569539
2.566 0.56917
2.567 0.568805
2.568 0.568442
2.569 0.568083
2.57 0.567726
2.571 0.567372
2.572 0.567021
2.573 0.566673
2.574 0.566327
2.575 0.565985
2.576 0.565645
2.577 0.565309
2.578 0.564975
2.579 0.564644
2.58 0.564315
2.581 0.56399
2.582 0.563667
2.583 0.563347
2.584 0.56303
2.585 0.562716
2.586 0.562405
2.587 0.562096
2.588 0.56179
2.589 0.561487
2.59 0.561187
2.591 0.560889
2.592 0.560594
2.593 0.560302
2.594 0.560013
2.595 0.559726
2.596 0.559442
2.597 0.559161
2.598 0.558882
2.599 0.558607
2.6 0.558334
2.601 0.558063
2.602 0.557796
2.603 0.557531
2.604 0.557268
2.605 0.557008
2.606 0.556751
2.607 0.556497
2.608 0.556245
2.609 0.555996
2.61 0.55575
2.611 0.555506
2.612 0.555265
2.613 0.555027
2.614 0.554791
2.615 0.554557
2.616 0.554327
2.617 0.554099
2.618 0.553873
2.619 0.55365
2.62 0.55343
2.621 0.553212
2.622 0.552997
2.623 0.552784
2.624 0.552574
2.625 0.552366
2.626 0.552161
2.627 0.551959
2.628 0.551759
2.629 0.551562
2.63 0.551367
2.631 0.551174
2.632 0.550984
2.633 0.550797
2.634 0.550612
2.635 0.55043
2.636 0.55025
2.637 0.550072
2.638 0.549897
2.639 0.549725
2.64 0.549555
2.641 0.549387
2.642 0.549222
2.643 0.549059
2.644 0.548899
2.645 0.548741
2.646 0.548586
2.647 0.548433
2.648 0.548282
2.649 0.548134
2.65 0.547988
2.651 0.547845
2.652 0.547703
2.653 0.547565
2.654 0.547428
2.655 0.547295
2.656 0.547163
2.657 0.547034
2.658 0.546907
2.659 0.546782
2.66 0.54666
2.661 0.54654
2.662 0.546423
2.663 0.546307
2.664 0.546194
2.665 0.546084
2.666 0.545975
2.667 0.545869
2.668 0.545766
2.669 0.545664
2.67 0.545565
2.671 0.545468
2.672 0.545373
2.673 0.545281
2.674 0.545191
2.675 0.545103
2.676 0.545017
2.677 0.544933
2.678 0.544852
2.679 0.544773
2.68 0.544696
2.681 0.544622
2.682 0.544549
2.683 0.544479
2.684 0.544411
2.685 0.544345
2.686 0.544282
2.687 0.54422
2.688 0.544161
2.689 0.544103
2.69 0.544048
2.691 0.543996
2.692 0.543945
2.693 0.543896
2.694 0.54385
2.695 0.543805
2.696 0.543763
2.697 0.543723
2.698 0.543685
2.699 0.543649
2.7 0.543615
2.701 0.543583
2.702 0.543553
2.703 0.543526
2.704 0.5435
2.705 0.543477
2.706 0.543455
2.707 0.543436
2.708 0.543418
2.709 0.543403
2.71 0.54339
2.711 0.543378
2.712 0.543369
2.713 0.543362
2.714 0.543357
2.715 0.543353
2.716 0.543352
2.717 0.543353
2.718 0.543356
2.719 0.54336
2.72 0.543367
2.721 0.543375
2.722 0.543386
2.723 0.543398
2.724 0.543413
2.725 0.543429
2.726 0.543448
2.727 0.543468
2.728 0.54349
2.729 0.543514
2.73 0.54354
2.731 0.543568
2.732 0.543598
2.733 0.543629
2.734 0.543663
2.735 0.543698
2.736 0.543736
2.737 0.543775
2.738 0.543816
2.739 0.543858
2.74 0.543903
2.741 0.54395
2.742 0.543998
2.743 0.544048
2.744 0.5441
2.745 0.544154
2.746 0.54421
2.747 0.544267
2.748 0.544326
2.749 0.544387
2.75 0.54445
2.751 0.544515
2.752 0.544581
2.753 0.544649
2.754 0.544719
2.755 0.544791
2.756 0.544864
2.757 0.544939
2.758 0.545016
2.759 0.545095
2.76 0.545175
2.761 0.545257
2.762 0.545341
2.763 0.545426
2.764 0.545513
2.765 0.545602
2.766 0.545693
2.767 0.545785
2.768 0.545879
2.769 0.545974
2.77 0.546071
2.771 0.54617
2.772 0.546271
2.773 0.546373
2.774 0.546477
2.775 0.546582
2.776 0.546689
2.777 0.546798
2.778 0.546908
2.779 0.54702
2.78 0.547133
2.781 0.547248
2.782 0.547365
2.783 0.547483
2.784 0.547603
2.785 0.547725
2.786 0.547847
2.787 0.547972
2.788 0.548098
2.789 0.548226
2.79 0.548355
2.791 0.548485
2.792 0.548618
2.793 0.548751
2.794 0.548887
2.795 0.549023
2.796 0.549162
2.797 0.549301
2.798 0.549443
2.799 0.549585
2.8 0.549729
2.801 0.549875
2.802 0.550022
2.803 0.550171
2.804 0.550321
2.805 0.550472
2.806 0.550625
2.807 0.55078
2.808 0.550935
2.809 0.551093
2.81 0.551251
2.811 0.551411
2.812 0.551573
2.813 0.551736
2.814 0.5519
2.815 0.552066
2.816 0.552233
2.817 0.552401
2.818 0.552571
2.819 0.552742
2.82 0.552914
2.821 0.553088
2.822 0.553263
2.823 0.55344
2.824 0.553618
2.825 0.553797
2.826 0.553977
2.827 0.554159
2.828 0.554342
2.829 0.554526
2.83 0.554712
2.831 0.554899
2.832 0.555087
2.833 0.555277
2.834 0.555468
2.835 0.55566
2.836 0.555853
2.837 0.556048
2.838 0.556244
2.839 0.556441
2.84 0.556639
2.841 0.556838
2.842 0.557039
2.843 0.557241
2.844 0.557444
2.845 0.557649
2.846 0.557854
2.847 0.558061
2.848 0.558269
2.849 0.558478
2.85 0.558688
2.851 0.5589
2.852 0.559112
2.853 0.559326
2.854 0.559541
2.855 0.559757
2.856 0.559974
2.857 0.560193
2.858 0.560412
2.859 0.560633
2.86 0.560854
2.861 0.561077
2.862 0.561301
2.863 0.561526
2.864 0.561752
2.865 0.561979
2.866 0.562208
2.867 0.562437
2.868 0.562667
2.869 0.562899
2.87 0.563131
2.871 0.563365
2.872 0.563599
2.873 0.563835
2.874 0.564071
2.875 0.564309
2.876 0.564547
2.877 0.564787
2.878 0.565028
2.879 0.565269
2.88 0.565512
2.881 0.565756
2.882 0.566
2.883 0.566246
2.884 0.566492
2.885 0.56674
2.886 0.566988
2.887 0.567238
2.888 0.567488
2.889 0.567739
2.89 0.567991
2.891 0.568244
2.892 0.568498
2.893 0.568753
2.894 0.569009
2.895 0.569266
2.896 0.569523
2.897 0.569782
2.898 0.570041
2.899 0.570302
2.9 0.570563
2.901 0.570825
2.902 0.571087
2.903 0.571351
2.904 0.571616
2.905 0.571881
2.906 0.572147
2.907 0.572414
2.908 0.572682
2.909 0.572951
2.91 0.57322
2.911 0.57349
2.912 0.573761
2.913 0.574033
2.914 0.574306
2.915 0.574579
2.916 0.574853
2.917 0.575128
2.918 0.575404
2.919 0.57568
2.92 0.575957
2.921 0.576235
2.922 0.576514
2.923 0.576793
2.924 0.577073
2.925 0.577354
2.926 0.577636
2.927 0.577918
2.928 0.578201
2.929 0.578484
2.93 0.578769
2.931 0.579054
2.932 0.579339
2.933 0.579625
2.934 0.579912
2.935 0.5802
2.936 0.580488
2.937 0.580777
2.938 0.581067
2.939 0.581357
2.94 0.581648
2.941 0.581939
2.942 0.582231
2.943 0.582523
2.944 0.582817
2.945 0.58311
2.946 0.583405
2.947 0.5837
2.948 0.583995
2.949 0.584291
2.95 0.584588
2.951 0.584885
2.952 0.585183
2.953 0.585481
2.954 0.58578
2.955 0.586079
2.956 0.586379
2.957 0.58668
2.958 0.586981
2.959 0.587282
2.96 0.587584
2.961 0.587886
2.962 0.588189
2.963 0.588493
2.964 0.588796
2.965 0.589101
2.966 0.589406
2.967 0.589711
2.968 0.590016
2.969 0.590323
2.97 0.590629
2.971 0.590936
2.972 0.591244
2.973 0.591551
2.974 0.59186
2.975 0.592168
2.976 0.592477
2.977 0.592787
2.978 0.593097
2.979 0.593407
2.98 0.593718
2.981 0.594029
2.982 0.59434
2.983 0.594652
2.984 0.594964
2.985 0.595276
2.986 0.595589
2.987 0.595902
2.988 0.596216
2.989 0.596529
2.99 0.596843
2.991 0.597158
2.992 0.597472
2.993 0.597787
2.994 0.598103
2.995 0.598418
2.996 0.598734
2.997 0.59905
2.998 0.599366
2.999 0.599683
3 0.6
3.001 0.600317
3.002 0.600635
3.003 0.600952
3.004 0.60127
3.005 0.601588
3.006 0.601907
3.007 0.602225
3.008 0.602544
3.009 0.602863
3.01 0.603183
3.011 0.603502
3.012 0.603822
3.013 0.604142
3.014 0.604462
3.015 0.604783
3.016 0.605104
3.017 0.605425
3.018 0.605746
3.019 0.606068
3.02 0.60639
3.021 0.606712
3.022 0.607034
3.023 0.607357
3.024 0.607679
3.025 0.608002
3.026 0.608326
3.027 0.608649
3.028 0.608973
3.029 0.609297
3.03 0.609621
3.031 0.609946
3.032 0.610271
3.033 0.610595
3.034 0.610921
3.035 0.611246
3.036 0.611572
3.037 0.611898
3.038 0.612224
3.039 0.61255
3.04 0.612877
3.041 0.613204
3.042 0.613531
3.043 0.613858
3.044 0.614186
3.045 0.614514
3.046 0.614842
3.047 0.61517
3.048 0.615499
3.049 0.615828
3.05 0.616157
3.051 0.616486
3.052 0.616815
3.053 0.617145
3.054 0.617475
3.055 0.617805
3.056 0.618136
3.057 0.618466
3.058 0.618797
3.059 0.619129
3.06 0.61946
3.061 0.619792
3.062 0.620123
3.063 0.620455
3.064 0.620788
3.065 0.62112
3.066 0.621453
3.067 0.621786
3.068 0.622119
3.069 0.622453
3.07 0.622787
3.071 0.623121
3.072 0.623455
3.073 0.623789
3.074 0.624124
3.075 0.624459
3.076 0.624794
3.077 0.625129
3.078 0.625465
3.079 0.6258
3.08 0.626136
3.081 0.626473
3.082 0.626809
3.083 0.627146
3.084 0.627483
3.085 0.62782
3.086 0.628157
3.087 0.628495
3.088 0.628833
3.089 0.629171
3.09 0.629509
3.091 0.629848
3.092 0.630186
3.093 0.630525
3.094 0.630865
3.095 0.631204
3.096 0.631544
3.097 0.631884
3.098 0.632224
3.099 0.632564
3.1 0.632905
3.101 0.633245
3.102 0.633586
3.103 0.633928
3.104 0.634269
3.105 0.634611
3.106 0.634953
3.107 0.635295
3.108 0.635637
3.109 0.63598
3.11 0.636322
3.111 0.636665
3.112 0.637009
3.113 0.637352
3.114 0.637696
3.115 0.63804
3.116 0.638384
3.117 0.638728
3.118 0.639073
3.119 0.639417
3.12 0.639762
3.121 0.640108
3.122 0.640453
3.123 0.640799
3.124 0.641144
3.125 0.641491
3.126 0.641837
3.127 0.642183
3.128 0.64253
3.129 0.642877
3.13 0.643224
3.131 0.643572
3.132 0.643919
3.133 0.644267
3.134 0.644615
3.135 0.644963
3.136 0.645312
3.137 0.64566
3.138 0.646009
3.139 0.646358
3.14 0.646708
3.141 0.647057
3.142 0.647407
3.143 0.647757
3.144 0.648107
3.145 0.648458
3.146 0.648808
3.147 0.649159
3.148 0.64951
3.149 0.649861
3.15 0.650213
3.151 0.650564
3.152 0.650916
3.153 0.651268
3.154 0.651621
3.155 0.651973
3.156 0.652326
3.157 0.652679
3.158 0.653032
3.159 0.653385
3.16 0.653739
3.161 0.654093
3.162 0.654446
3.163 0.654801
3.164 0.655155
3.165 0.65551
3.166 0.655864
3.167 0.656219
3.168 0.656575
3.169 0.65693
3.17 0.657286
3.171 0.657642
3.172 0.657998
3.173 0.658354
3.174 0.65871
3.175 0.659067
3.176 0.659424
3.177 0.659781
3.178 0.660138
3.179 0.660496
3.18 0.660853
3.181 0.661211
3.182 0.661569
3.183 0.661928
3.184 0.662286
3.185 0.662645
3.186 0.663004
3.187 0.663363
3.188 0.663722
3.189 0.664082
3.19 0.664442
3.191 0.664801
3.192 0.665162
3.193 0.665522
3.194 0.665882
3.195 0.666243
3.196 0.666604
3.197 0.666965
3.198 0.667327
3.199 0.667688
3.2 0.66805
3.201 0.668412
3.202 0.668774
3.203 0.669136
3.204 0.669499
3.205 0.669861
3.206 0.670224
3.207 0.670587
3.208 0.670951
3.209 0.671314
3.21 0.671678
3.211 0.672042
3.212 0.672406
3.213 0.67277
3.214 0.673135
3.215 0.673499
3.216 0.673864
3.217 0.674229
3.218 0.674595
3.219 0.67496
3.22 0.675326
3.221 0.675692
3.222 0.676058
3.223 0.676424
3.224 0.67679
3.225 0.677157
3.226 0.677524
3.227 0.677891
3.228 0.678258
3.229 0.678625
3.23 0.678993
3.231 0.679361
3.232 0.679729
3.233 0.680097
3.234 0.680465
3.235 0.680834
3.236 0.681203
3.237 0.681572
3.238 0.681941
3.239 0.68231
3.24 0.68268
3.241 0.683049
3.242 0.683419
3.243 0.683789
3.244 0.684159
3.245 0.68453
3.246 0.6849
3.247 0.685271
3.248 0.685642
3.249 0.686013
3.25 0.686385
3.251 0.686756
3.252 0.687128
3.253 0.6875
3.254 0.687872
3.255 0.688245
3.256 0.688617
3.257 0.68899
3.258 0.689363
3.259 0.689736
3.26 0.690109
3.261 0.690482
3.262 0.690856
3.263 0.69123
3.264 0.691604
3.265 0.691978
3.266 0.692352
3.267 0.692727
3.268 0.693101
3.269 0.693476
3.27 0.693851
3.271 0.694227
3.272 0.694602
3.273 0.694978
3.274 0.695353
3.275 0.695729
3.276 0.696106
3.277 0.696482
3.278 0.696858
3.279 0.697235
3.28 0.697612
3.281 0.697989
3.282 0.698366
3.283 0.698744
3.284 0.699121
3.285 0.699499
3.286 0.699877
3.287 0.700255
3.288 0.700633
3.289 0.701012
3.29 0.70139
3.291 0.701769
3.292 0.702148
3.293 0.702528
3.294 0.702907
3.295 0.703286
3.296 0.703666
3.297 0.704046
3.298 0.704426
3.299 0.704806
3.3 0.705187
3.301 0.705567
3.302 0.705948
3.303 0.706329
3.304 0.70671
3.305 0.707091
3.306 0.707473
3.307 0.707854
3.308 0.708236
3.309 0.708618
3.31 0.709
3.311 0.709383
3.312 0.709765
3.313 0.710148
3.314 0.710531
3.315 0.710914
3.316 0.711297
3.317 0.71168
3.318 0.712064
3.319 0.712447
3.32 0.712831
3.321 0.713215
3.322 0.713599
3.323 0.713984
3.324 0.714368
3.325 0.714753
3.326 0.715138
3.327 0.715523
3.328 0.715908
3.329 0.716293
3.33 0.716679
3.331 0.717065
3.332 0.717451
3.333 0.717837
3.334 0.718223
3.335 0.718609
3.336 0.718996
3.337 0.719382
3.338 0.719769
3.339 0.720156
3.34 0.720543
3.341 0.720931
3.342 0.721318
3.343 0.721706
3.344 0.722094
3.345 0.722482
3.346 0.72287
3.347 0.723258
3.348 0.723647
3.349 0.724035
3.35 0.724424
3.351 0.724813
3.352 0.725202
3.353 0.725592
3.354 0.725981
3.355 0.726371
3.356 0.726761
3.357 0.727151
3.358 0.727541
3.359 0.727931
3.36 0.728321
3.361 0.728712
3.362 0.729103
3.363 0.729494
3.364 0.729885
3.365 0.730276
3.366 0.730667
3.367 0.731059
3.368 0.73145
3.369 0.731842
3.37 0.732234
3.371 0.732626
3.372 0.733019
3.373 0.733411
3.374 0.733804
3.375 0.734197
3.376 0.73459
3.377 0.734983
3.378 0.735376
3.379 0.735769
3.38 0.736163
3.381 0.736557
3.382 0.736951
3.383 0.737345
3.384 0.737739
3.385 0.738133
3.386 0.738528
3.387 0.738922
3.388 0.739317
3.389 0.739712
3.39 0.740107
3.391 0.740502
3.392 0.740898
3.393 0.741293
3.394 0.741689
3.395 0.742085
3.396 0.742481
3.397 0.742877
3.398 0.743273
3.399 0.74367
3.4 0.744066
3.401 0.744463
3.402 0.74486
3.403 0.745257
3.404 0.745654
3.405 0.746052
3.406 0.746449
3.407 0.746847
3.408 0.747245
3.409 0.747643
3.41 0.748041
3.411 0.748439
3.412 0.748837
3.413 0.749236
3.414 0.749634
3.415 0.750033
3.416 0.750432
3.417 0.750831
3.418 0.751231
3.419 0.75163
3.42 0.75203
3.421 0.752429
3.422 0.752829
3.423 0.753229
3.424 0.753629
3.425 0.754029
3.426 0.75443
3.427 0.75483
3.428 0.755231
3.429 0.755632
3.43 0.756033
3.431 0.756434
3.432 0.756835
3.433 0.757237
3.434 0.757638
3.435 0.75804
3.436 0.758442
3.437 0.758844
3.438 0.759246
3.439 0.759648
3.44 0.76005
3.441 0.760453
3.442 0.760856
3.443 0.761258
3.444 0.761661
3.445 0.762064
3.446 0.762468
3.447 0.762871
3.448 0.763275
3.449 0.763678
3.45 0.764082
3.451 0.764486
3.452 0.76489
3.453 0.765294
3.454 0.765698
3.455 0.766103
3.456 0.766507
3.457 0.766912
3.458 0.767317
3.459 0.767722
3.46 0.768127
3.461 0.768532
3.462 0.768938
3.463 0.769343
3.464 0.769749
3.465 0.770155
3.466 0.770561
3.467 0.770967
3.468 0.771373
3.469 0.771779
3.47 0.772186
3.471 0.772592
3.472 0.772999
3.473 0.773406
3.474 0.773813
3.475 0.77422
3.476 0.774627
3.477 0.775035
3.478 0.775442
3.479 0.77585
3.48 0.776258
3.481 0.776665
3.482 0.777074
3.483 0.777482
3.484 0.77789
3.485 0.778298
3.486 0.778707
3.487 0.779116
3.488 0.779524
3.489 0.779933
3.49 0.780342
3.491 0.780752
3.492 0.781161
3.493 0.78157
3.494 0.78198
3.495 0.78239
3.496 0.782799
3.497 0.783209
3.498 0.783619
3.499 0.78403
3.5 0.78444
3.501 0.78485
3.502 0.785261
3.503 0.785672
3.504 0.786082
3.505 0.786493
3.506 0.786904
3.507 0.787315
3.508 0.787727
3.509 0.788138
3.51 0.78855
3.511 0.788961
3.512 0.789373
3.513 0.789785
3.514 0.790197
3.515 0.790609
3.516 0.791022
3.517 0.791434
3.518 0.791846
3.519 0.792259
3.52 0.792672
3.521 0.793085
3.522 0.793498
3.523 0.793911
3.524 0.794324
3.525 0.794737
3.526 0.795151
3.527 0.795564
3.528 0.795978
3.529 0.796392
3.53 0.796806
3.531 0.79722
3.532 0.797634
3.533 0.798048
3.534 0.798463
3.535 0.798877
3.536 0.799292
3.537 0.799707
3.538 0.800122
3.539 0.800537
3.54 0.800952
3.541 0.801367
3.542 0.801782
3.543 0.802198
3.544 0.802613
3.545 0.803029
3.546 0.803445
3.547 0.803861
3.548 0.804277
3.549 0.804693
3.55 0.805109
3.551 0.805525
3.552 0.805942
3.553 0.806358
3.554 0.806775
3.555 0.807192
3.556 0.807609
3.557 0.808026
3.558 0.808443
3.559 0.80886
3.56 0.809277
3.561 0.809695
3.562 0.810112
3.563 0.81053
3.564 0.810948
3.565 0.811366
3.566 0.811784
3.567 0.812202
3.568 0.81262
3.569 0.813038
3.57 0.813457
3.571 0.813875
3.572 0.814294
3.573 0.814713
3.574 0.815131
3.575 0.81555
3.576 0.81597
3.577 0.816389
3.578 0.816808
3.579 0.817227
3.58 0.817647
3.581 0.818066
3.582 0.818486
3.583 0.818906
3.584 0.819326
3.585 0.819746
3.586 0.820166
3.587 0.820586
3.588 0.821006
3.589 0.821427
3.59 0.821847
3.591 0.822268
3.592 0.822689
3.593 0.82311
3.594 0.82353
3.595 0.823951
3.596 0.824373
3.597 0.824794
3.598 0.825215
3.599 0.825637
3.6 0.826058
3.601 0.82648
3.602 0.826901
3.603 0.827323
3.604 0.827745
3.605 0.828167
3.606 0.828589
3.607 0.829012
3.608 0.829434
3.609 0.829856
3.61 0.830279
3.611 0.830701
3.612 0.831124
3.613 0.831547
3.614 0.83197
3.615 0.832393
3.616 0.832816
3.617 0.833239
3.618 0.833662
3.619 0.834086
3.62 0.834509
3.621 0.834933
3.622 0.835356
3.623 0.83578
3.624 0.836204
3.625 0.836628
3.626 0.837052
3.627 0.837476
3.628 0.8379
3.629 0.838325
3.63 0.838749
3.631 0.839174
3.632 0.839598
3.633 0.840023
3.634 0.840448
3.635 0.840872
3.636 0.841297
3.637 0.841722
3.638 0.842148
3.639 0.842573
3.64 0.842998
3.641 0.843424
3.642 0.843849
3.643 0.844275
3.644 0.8447
3.645 0.845126
3.646 0.845552
3.647 0.845978
3.648 0.846404
3.649 0.84683
3.65 0.847256
3.651 0.847683
3.652 0.848109
3.653 0.848535
3.654 0.848962
3.655 0.849389
3.656 0.849815
3.657 0.850242
3.658 0.850669
3.659 0.851096
3.66 0.851523
3.661 0.85195
3.662 0.852377
3.663 0.852805
3.664 0.853232
3.665 0.85366
3.666 0.854087
3.667 0.854515
3.668 0.854943
3.669 0.85537
3.67 0.855798
3.671 0.856226
3.672 0.856654
3.673 0.857082
3.674 0.857511
3.675 0.857939
3.676 0.858367
3.677 0.858796
3.678 0.859224
3.679 0.859653
3.68 0.860082
3.681 0.86051
3.682 0.860939
3.683 0.861368
3.684 0.861797
3.685 0.862226
3.686 0.862656
3.687 0.863085
3.688 0.863514
3.689 0.863944
3.69 0.864373
3.691 0.864803
3.692 0.865232
3.693 0.865662
3.694 0.866092
3.695 0.866522
3.696 0.866952
3.697 0.867382
3.698 0.867812
3.699 0.868242
3.7 0.868672
3.701 0.869103
3.702 0.869533
3.703 0.869963
3.704 0.870394
3.705 0.870825
3.706 0.871255
3.707 0.871686
3.708 0.872117
3.709 0.872548
3.71 0.872979
3.711 0.87341
3.712 0.873841
3.713 0.874272
3.714 0.874703
3.715 0.875135
3.716 0.875566
3.717 0.875998
3.718 0.876429
3.719 0.876861
3.72 0.877293
3.721 0.877724
3.722 0.878156
3.723 0.878588
3.724 0.87902
3.725 0.879452
3.726 0.879884
3.727 0.880316
3.728 0.880749
3.729 0.881181
3.73 0.881613
3.731 0.882046
3.732 0.882478
3.733 0.882911
3.734 0.883344
3.735 0.883776
3.736 0.884209
3.737 0.884642
3.738 0.885075
3.739 0.885508
3.74 0.885941
3.741 0.886374
3.742 0.886807
3.743 0.88724
3.744 0.887674
3.745 0.888107
3.746 0.888541
3.747 0.888974
3.748 0.889408
3.749 0.889841
3.75 0.890275
3.751 0.890709
3.752 0.891142
3.753 0.891576
3.754 0.89201
3.755 0.892444
3.756 0.892878
3.757 0.893312
3.758 0.893747
3.759 0.894181
3.76 0.894615
3.761 0.895049
3.762 0.895484
3.763 0.895918
3.764 0.896353
3.765 0.896787
3.766 0.897222
3.767 0.897657
3.768 0.898092
3.769 0.898526
3.77 0.898961
3.771 0.899396
3.772 0.899831
3.773 0.900266
3.774 0.900701
3.775 0.901137
3.776 0.901572
3.777 0.902007
3.778 0.902442
3.779 0.902878
3.78 0.903313
3.781 0.903749
3.782 0.904184
3.783 0.90462
3.784 0.905056
3.785 0.905491
3.786 0.905927
3.787 0.906363
3.788 0.906799
3.789 0.907235
3.79 0.907671
3.791 0.908107
3.792 0.908543
3.793 0.908979
3.794 0.909415
3.795 0.909851
3.796 0.910288
3.797 0.910724
3.798 0.91116
3.799 0.911597
3.8 0.912033
3.801 0.91247
3.802 0.912906
3.803 0.913343
3.804 0.91378
3.805 0.914216
3.806 0.914653
3.807 0.91509
3.808 0.915527
3.809 0.915964
3.81 0.916401
3.811 0.916838
3.812 0.917275
3.813 0.917712
3.814 0.918149
3.815 0.918586
3.816 0.919024
3.817 0.919461
3.818 0.919898
3.819 0.920336
3.82 0.920773
3.821 0.921211
3.822 0.921648
3.823 0.922086
3.824 0.922523
3.825 0.922961
3.826 0.923399
3.827 0.923836
3.828 0.924274
3.829 0.924712
3.83 0.92515
3.831 0.925588
3.832 0.926026
3.833 0.926464
3.834 0.926902
3.835 0.92734
3.836 0.927778
3.837 0.928216
3.838 0.928654
3.839 0.929093
3.84 0.929531
3.841 0.929969
3.842 0.930408
3.843 0.930846
3.844 0.931284
3.845 0.931723
3.846 0.932162
3.847 0.9326
3.848 0.933039
3.849 0.933477
3.85 0.933916
3.851 0.934355
3.852 0.934793
3.853 0.935232
3.854 0.935671
3.855 0.93611
3.856 0.936549
3.857 0.936988
3.858 0.937427
3.859 0.937866
3.86 0.938305
3.861 0.938744
3.862 0.939183
3.863 0.939622
3.864 0.940061
3.865 0.9405
3.866 0.94094
3.867 0.941379
3.868 0.941818
3.869 0.942258
3.87 0.942697
3.871 0.943136
3.872 0.943576
3.873 0.944015
3.874 0.944455
3.875 0.944894
3.876 0.945334
3.877 0.945773
3.878 0.946213
3.879 0.946653
3.88 0.947092
3.881 0.947532
3.882 0.947972
3.883 0.948412
3.884 0.948851
3.885 0.949291
3.886 0.949731
3.887 0.950171
3.888 0.950611
3.889 0.951051
3.89 0.951491
3.891 0.951931
3.892 0.952371
3.893 0.952811
3.894 0.953251
3.895 0.953691
3.896 0.954131
3.897 0.954571
3.898 0.955012
3.899 0.955452
3.9 0.955892
3.901 0.956332
3.902 0.956773
3.903 0.957213
3.904 0.957653
3.905 0.958094
3.906 0.958534
3.907 0.958974
3.908 0.959415
3.909 0.959855
3.91 0.960296
3.911 0.960736
3.912 0.961177
3.913 0.961617
3.914 0.962058
3.915 0.962499
3.916 0.962939
3.917 0.96338
3.918 0.96382
3.919 0.964261
3.92 0.964702
3.921 0.965142
3.922 0.965583
3.923 0.966024
3.924 0.966465
3.925 0.966905
3.926 0.967346
3.927 0.967787
3.928 0.968228
3.929 0.968669
3.93 0.96911
3.931 0.969551
3.932 0.969991
3.933 0.970432
3.934 0.970873
3.935 0.971314
3.936 0.971755
3.937 0.972196
3.938 0.972637
3.939 0.973078
3.94 0.973519
3.941 0.97396
3.942 0.974401
3.943 0.974843
3.944 0.975284
3.945 0.975725
3.946 0.976166
3.947 0.976607
3.948 0.977048
3.949 0.977489
3.95 0.97793
3.951 0.978372
3.952 0.978813
3.953 0.979254
3.954 0.979695
3.955 0.980137
3.956 0.980578
3.957 0.981019
3.958 0.98146
3.959 0.981902
3.96 0.982343
3.961 0.982784
3.962 0.983226
3.963 0.983667
3.964 0.984108
3.965 0.984549
3.966 0.984991
3.967 0.985432
3.968 0.985874
3.969 0.986315
3.97 0.986756
3.971 0.987198
3.972 0.987639
3.973 0.98808
3.974 0.988522
3.975 0.988963
3.976 0.989405
3.977 0.989846
3.978 0.990288
3.979 0.990729
3.98 0.99117
3.981 0.991612
3.982 0.992053
3.983 0.992495
3.984 0.992936
3.985 0.993378
3.986 0.993819
3.987 0.994261
3.988 0.994702
3.989 0.995144
3.99 0.995585
3.991 0.996027
3.992 0.996468
3.993 0.99691
3.994 0.997351
3.995 0.997793
3.996 0.998234
3.997 0.998676
3.998 0.999117
3.999 0.999559
4 1
